%YAML 1.1
%TAG !u! tag:unity3d.com,2011:
--- !u!1 &1349306621173598
GameObject:
  m_ObjectHideFlags: 0
  m_CorrespondingSourceObject: {fileID: 0}
  m_PrefabInstance: {fileID: 0}
  m_PrefabAsset: {fileID: 0}
  serializedVersion: 6
  m_Component:
  - component: {fileID: 4952778660746922}
  - component: {fileID: 114178768424885312}
  m_Layer: 0
  m_Name: Platform Speed Driver
  m_TagString: Untagged
  m_Icon: {fileID: 6519382022992737161, guid: 0000000000000000d000000000000000, type: 0}
  m_NavMeshLayer: 0
  m_StaticEditorFlags: 0
  m_IsActive: 1
--- !u!4 &4952778660746922
Transform:
  m_ObjectHideFlags: 0
  m_CorrespondingSourceObject: {fileID: 0}
  m_PrefabInstance: {fileID: 0}
  m_PrefabAsset: {fileID: 0}
  m_GameObject: {fileID: 1349306621173598}
  m_LocalRotation: {x: -0, y: -0, z: -0, w: 1}
  m_LocalPosition: {x: -3, y: -61, z: 0}
  m_LocalScale: {x: 1, y: 1, z: 1}
  m_Children: []
  m_Father: {fileID: 0}
  m_RootOrder: 0
  m_LocalEulerAnglesHint: {x: 0, y: 0, z: 0}
--- !u!114 &114178768424885312
MonoBehaviour:
  m_ObjectHideFlags: 0
  m_CorrespondingSourceObject: {fileID: 0}
  m_PrefabInstance: {fileID: 0}
  m_PrefabAsset: {fileID: 0}
  m_GameObject: {fileID: 1349306621173598}
  m_Enabled: 1
  m_EditorHideFlags: 0
  m_GeneratorAsset: {fileID: 0}
  m_Script: {fileID: 11500000, guid: b9a9dbd36f5c6aa499d927ce5c3ed8df, type: 3}
  m_Name: 
  m_EditorClassIdentifier: 
  ID: 27380
  PermanentlyComplete: 0
  CompleteSound: {fileID: 0}
  AlsoCompletes: []
  FiredOnComplete: []
  OffColor: {r: 1, g: 0.8117648, b: 1, a: 1}
  OnColor: {r: 0, g: 1, b: 1, a: 1}
  CompletedColor: {r: 0.2509804, g: 0.2392157, b: 1, a: 1}
  Switches: []
  PipeZones: []
  OffSpeed: 0
  OnSpeed: 0
  Platforms: []
