%YAML 1.1
%TAG !u! tag:unity3d.com,2011:
--- !u!114 &11400000
MonoBehaviour:
  m_ObjectHideFlags: 0
  m_CorrespondingSourceObject: {fileID: 0}
  m_PrefabInstance: {fileID: 0}
  m_PrefabAsset: {fileID: 0}
  m_GameObject: {fileID: 0}
  m_Enabled: 1
  m_EditorHideFlags: 0
  m_Script: {fileID: 11500000, guid: 991e6d80c050b774d98dd0b654a86403, type: 3}
  m_Name: Null Sphere Launcher
  m_EditorClassIdentifier: 
  AssetPath: Assets/Data/Weapons/Null Sphere Launcher.asset
  PrimaryAutomatic: 1
  SecondaryAutomatic: 0
  Recoil: 0.05
  FireDelayPrimary: 0.075
  FireDelaySecondary: 0.15
  NameLocation: 
  DescriptionLocation: 
  RightOffset: {x: 0.695, y: -0.165, z: 0.05}
  LeftOffset: {x: 0.698, y: 0.17, z: 0.05}
  FrontArmRightOffset: {x: -0.11, y: -0.133, z: -0.1}
  FrontArmLeftOffset: {x: 0.1, y: -0.126, z: -0.1}
  BackRightOffset: {x: 0.086, y: -0.215, z: 0.2}
  BackLeftOffset: {x: 0.237, y: 0.194, z: 0.1}
  WeaponSpriteBundle: {fileID: 0}
  PrimaryFireSound: {fileID: 8300000, guid: 5b33ab3d9ed24b747ad20175a952a721, type: 3}
  ProjectilePrimary: {fileID: 1512317862580764, guid: 445cf22cf8714b94f837c1b45cea2454,
    type: 3}
  ProjectileSecondary: {fileID: 1909593791584916, guid: 4a882709955a8f943b7c7edd1b8ca60f,
    type: 3}
  XOffset: 1.5
  YOffset: -0.05
  PoolName: NullSphereBullets
  NullSphereFiredSound: {fileID: 8300000, guid: 5b33ab3d9ed24b747ad20175a952a721,
    type: 3}
