%YAML 1.1
%TAG !u! tag:unity3d.com,2011:
--- !u!1 &1804969071349558
GameObject:
  m_ObjectHideFlags: 0
  m_CorrespondingSourceObject: {fileID: 0}
  m_PrefabInstance: {fileID: 0}
  m_PrefabAsset: {fileID: 0}
  serializedVersion: 6
  m_Component:
  - component: {fileID: 4006464627007588}
  - component: {fileID: 212122686212449992}
  - component: {fileID: 50712149890822854}
  - component: {fileID: 61282508104173894}
  - component: {fileID: 114349532841355366}
  - component: {fileID: 114187344874355622}
  - component: {fileID: 1416881889443075349}
  - component: {fileID: 114092249655988522}
  - component: {fileID: 114119602394229758}
  m_Layer: 10
  m_Name: Mimiturge Bullet
  m_TagString: Bullet
  m_Icon: {fileID: 0}
  m_NavMeshLayer: 0
  m_StaticEditorFlags: 0
  m_IsActive: 1
--- !u!4 &4006464627007588
Transform:
  m_ObjectHideFlags: 0
  m_CorrespondingSourceObject: {fileID: 0}
  m_PrefabInstance: {fileID: 0}
  m_PrefabAsset: {fileID: 0}
  m_GameObject: {fileID: 1804969071349558}
  m_LocalRotation: {x: 0, y: 0, z: 0, w: 1}
  m_LocalPosition: {x: 70.66786, y: -10.376542, z: 0}
  m_LocalScale: {x: 1, y: 1, z: 1}
  m_Children: []
  m_Father: {fileID: 0}
  m_RootOrder: 0
  m_LocalEulerAnglesHint: {x: 0, y: 0, z: 0}
--- !u!212 &212122686212449992
SpriteRenderer:
  m_ObjectHideFlags: 0
  m_CorrespondingSourceObject: {fileID: 0}
  m_PrefabInstance: {fileID: 0}
  m_PrefabAsset: {fileID: 0}
  m_GameObject: {fileID: 1804969071349558}
  m_Enabled: 1
  m_CastShadows: 0
  m_ReceiveShadows: 0
  m_DynamicOccludee: 1
  m_MotionVectors: 1
  m_LightProbeUsage: 0
  m_ReflectionProbeUsage: 0
  m_RenderingLayerMask: 4294967295
  m_RendererPriority: 0
  m_Materials:
  - {fileID: 10754, guid: 0000000000000000f000000000000000, type: 0}
  m_StaticBatchInfo:
    firstSubMesh: 0
    subMeshCount: 0
  m_StaticBatchRoot: {fileID: 0}
  m_ProbeAnchor: {fileID: 0}
  m_LightProbeVolumeOverride: {fileID: 0}
  m_ScaleInLightmap: 1
  m_PreserveUVs: 0
  m_IgnoreNormalsForChartDetection: 0
  m_ImportantGI: 0
  m_StitchLightmapSeams: 0
  m_SelectedEditorRenderState: 0
  m_MinimumChartSize: 4
  m_AutoUVMaxDistance: 0.5
  m_AutoUVMaxAngle: 89
  m_LightmapParameters: {fileID: 0}
  m_SortingLayerID: 0
  m_SortingLayer: 0
  m_SortingOrder: 0
  m_Sprite: {fileID: 21300064, guid: f9648ef701c03f0449e2a6387ff03b51, type: 3}
  m_Color: {r: 1, g: 1, b: 1, a: 1}
  m_FlipX: 0
  m_FlipY: 0
  m_DrawMode: 0
  m_Size: {x: 0.59375, y: 0.21875}
  m_AdaptiveModeThreshold: 0.5
  m_SpriteTileMode: 0
  m_WasSpriteAssigned: 1
  m_MaskInteraction: 0
  m_SpriteSortPoint: 0
--- !u!50 &50712149890822854
Rigidbody2D:
  serializedVersion: 4
  m_ObjectHideFlags: 0
  m_CorrespondingSourceObject: {fileID: 0}
  m_PrefabInstance: {fileID: 0}
  m_PrefabAsset: {fileID: 0}
  m_GameObject: {fileID: 1804969071349558}
  m_BodyType: 0
  m_Simulated: 1
  m_UseFullKinematicContacts: 0
  m_UseAutoMass: 0
  m_Mass: 1
  m_LinearDrag: 0
  m_AngularDrag: 0.05
  m_GravityScale: 0
  m_Material: {fileID: 0}
  m_Interpolate: 0
  m_SleepingMode: 1
  m_CollisionDetection: 0
  m_Constraints: 0
--- !u!61 &61282508104173894
BoxCollider2D:
  m_ObjectHideFlags: 0
  m_CorrespondingSourceObject: {fileID: 0}
  m_PrefabInstance: {fileID: 0}
  m_PrefabAsset: {fileID: 0}
  m_GameObject: {fileID: 1804969071349558}
  m_Enabled: 1
  m_Density: 1
  m_Material: {fileID: 0}
  m_IsTrigger: 1
  m_UsedByEffector: 0
  m_UsedByComposite: 0
  m_Offset: {x: 0, y: 0}
  m_SpriteTilingProperty:
    border: {x: 0, y: 0, z: 0, w: 0}
    pivot: {x: 0.5, y: 0.5}
    oldSize: {x: 0.59375, y: 0.21875}
    newSize: {x: 0.59375, y: 0.21875}
    adaptiveTilingThreshold: 0.5
    drawMode: 0
    adaptiveTiling: 0
  m_AutoTiling: 0
  serializedVersion: 2
  m_Size: {x: 0.359375, y: 0.15625}
  m_EdgeRadius: 0
--- !u!114 &114349532841355366
MonoBehaviour:
  m_ObjectHideFlags: 0
  m_CorrespondingSourceObject: {fileID: 0}
  m_PrefabInstance: {fileID: 0}
  m_PrefabAsset: {fileID: 0}
  m_GameObject: {fileID: 1804969071349558}
  m_Enabled: 1
  m_EditorHideFlags: 0
  m_Script: {fileID: 11500000, guid: 1cb415683204f624380a7f000b769850, type: 3}
  m_Name: 
  m_EditorClassIdentifier: 
  BlendColor: 0
--- !u!114 &114187344874355622
MonoBehaviour:
  m_ObjectHideFlags: 0
  m_CorrespondingSourceObject: {fileID: 0}
  m_PrefabInstance: {fileID: 0}
  m_PrefabAsset: {fileID: 0}
  m_GameObject: {fileID: 1804969071349558}
  m_Enabled: 1
  m_EditorHideFlags: 0
  m_Script: {fileID: 11500000, guid: cb38e39cd7e4d474bb81b878dbfecadb, type: 3}
  m_Name: 
  m_EditorClassIdentifier: 
  _snapshotType: Worldline.TimeEngine.Recording.VisualSnapshot
--- !u!114 &1416881889443075349
MonoBehaviour:
  m_ObjectHideFlags: 0
  m_CorrespondingSourceObject: {fileID: 0}
  m_PrefabInstance: {fileID: 0}
  m_PrefabAsset: {fileID: 0}
  m_GameObject: {fileID: 1804969071349558}
  m_Enabled: 1
  m_EditorHideFlags: 0
  m_Script: {fileID: 11500000, guid: 9920d27781d986041a91f56c00930ddd, type: 3}
  m_Name: 
  m_EditorClassIdentifier: 
  CanBeGrounded: 0
  DebugSurfaceDetection: 0
  DebugCeilingDetection: 0
  DebugAngleCollection: 0
  DebugSlopeDetection: 0
  JumpHeight: 0
  JumpPower: 0
  Acceleration: 9999
  JumpMobilityLoss: 0
  GroundDetectionLayerMask:
    serializedVersion: 2
    m_Bits: 512
  IgnoreCollisions:
  - Item
  - NPC
  - Player
  IgnoreTriggers: []
--- !u!114 &114092249655988522
MonoBehaviour:
  m_ObjectHideFlags: 0
  m_CorrespondingSourceObject: {fileID: 0}
  m_PrefabInstance: {fileID: 0}
  m_PrefabAsset: {fileID: 0}
  m_GameObject: {fileID: 1804969071349558}
  m_Enabled: 1
  m_EditorHideFlags: 0
  m_Script: {fileID: 11500000, guid: f4d0d352a31ba234680785314093462c, type: 3}
  m_Name: 
  m_EditorClassIdentifier: 
  DestroyOffScreen: 1
  DestroyOnSurface: 1
  DestroyOnCollision: 1
  FaceMovingDirection: 0
  Damage: 1
  TimeAlive: 0
  Speed: 25
  DeathPoolName: MimiturgeBullet
  CombatAlignment: 2
  DeathParticleSprites:
  - {fileID: 21300040, guid: f9648ef701c03f0449e2a6387ff03b51, type: 3}
  - {fileID: 21300042, guid: f9648ef701c03f0449e2a6387ff03b51, type: 3}
  - {fileID: 21300044, guid: f9648ef701c03f0449e2a6387ff03b51, type: 3}
  - {fileID: 21300046, guid: f9648ef701c03f0449e2a6387ff03b51, type: 3}
--- !u!114 &114119602394229758
MonoBehaviour:
  m_ObjectHideFlags: 0
  m_CorrespondingSourceObject: {fileID: 0}
  m_PrefabInstance: {fileID: 0}
  m_PrefabAsset: {fileID: 0}
  m_GameObject: {fileID: 1804969071349558}
  m_Enabled: 1
  m_EditorHideFlags: 0
  m_Script: {fileID: 11500000, guid: 93d98581219b3d94a99d1a01148b022c, type: 3}
  m_Name: 
  m_EditorClassIdentifier: 
